Year,Month,Day,Quality,T1,T2,T3,T4,T5,T6,T7,T8,G24h,G48h,G72h,Z24h,Z48h,Z72h,A24h,A48h,A72h
2008,5,29,7,1,,,,,,,,36.3,57.8,92.2,37.9,50.9,60.6,20.7,36.6,42.3
2005,8,2,7,,,,,1,,1,,53,67.5,67.5,40.1,55.8,55.8,46.6,56.4,56.4
2005,10,4,0,,,,,1,,1,,0,22.5,41.6,16.4,42.7,50.8,18,32,38
2003,6,14,14,,,,,1,,,,16.3,16.3,16.3,15.8,15.8,16.2,15.5,15.5,15.5
2002,6,5,0,1,,,,1,,1,,26,29.4,32.7,29.2,34.7,36.3,28.6,32.6,34.3
2001,7,15,0,,,,,1,,1,,37.1,39,39,28.7,32.6,32.6,34.6,35.6,35.6
2000,10,14,0,,1,1,1,,1,1,1,125,153.4,154.9,80.4,94.3,99.2,91,126,128
1999,8,16,7,,,,1,,,,,27.5,27.5,28.3,20.8,20.8,20.8,18,18,18.3
1997,6,29,0,,,,,1,,,,24.7,38.7,38.7,23.3,31.3,31.9,32.8,44.1,44.1
1996,7,24,0,1,,,,,,1,,5.1,34.1,34.1,21.5,43.4,43.4,4.2,17.2,17.2
1995,5,31,0,,1,,,,,1,,13.9,51.7,66,23.3,67.3,87.8,18.2,50,69
1994,6,26,0,,1,,,,,,,25.8,25.9,26.7,23.4,23.5,23.8,18.1,18.1,18.1
1994,7,20,0,,,,,,,,,3.1,28.6,37.1,3,24.4,28.9,23,46,57.8
1993,9,24,0,1,1,,1,1,1,1,,59.8,98.1,115.8,38.7,83.7,104.4,20.2,44.1,46.2
1992,6,2,0,,,,,1,,1,,27.3,44.9,48.6,18.6,38,39.8,25.6,37.8,40
1991,6,16,0,1,,,1,1,,1,,28.4,31.8,31.8,40.8,46.7,46.7,20.9,22.7,22.7
1991,8,8,0,1,,,1,1,,1,,43.1,43.3,43.3,39.7,39.7,39.7,31.9,31.9,31.9
1990,6,30,7,,,,,1,1,1,,11.9,12.4,12.8,23.6,24.5,25,,,
1989,7,24,14,,,1,1,,1,,,9.2,11.5,16.5,16.3,17.1,18.7,,,
1988,8,11,7,,,,,,1,,,18,18,18,,,,,,
1987,8,24,0,1,,,,,1,,,29.2,46.9,46.9,36.2,56,56,26.5,37.1,37.1
1986,7,6,7,,,,,1,,,,22.6,22.8,22.8,24.5,24.5,24.5,15.5,15.5,15.5
1985,8,5,7,,1,,,1,,1,,21.3,21.3,22.2,23,23,23.2,11.9,11.9,11.9
1984,10,1,7,,,,1,,1,,,26.5,26.5,26.5,36.2,36.2,36.2,20.3,20.3,20.3
1982,7,31,7,1,1,,,,,,,29,47.4,47.5,23.4,37.1,37.2,33.1,44.7,44.7
1981,9,22,7,,1,,,,,,,28.6,28.9,28.9,36.4,36.6,36.6,21.6,21.6,21.6
1980,6,9,0,,,,1,,1,,,20.9,31.7,45.4,18.8,28.5,47.1,21.8,29.6,38.9
1979,8,16,7,1,1,,,,,1,,28.1,29.6,29.9,25.1,30.2,30.2,32.2,33.8,33.8
1978,8,7,0,1,,,1,1,,1,1,33.1,40.2,40.2,53.1,59.4,59.4,31,38.2,38.2
1977,8,29,0,1,1,,,,,,1,47.5,52.4,54.3,34,44,45.3,38.3,40.4,41.2
1976,10,12,7,,,,,1,,,,42.8,42.8,42.8,56.2,56.2,56.2,54.2,54.2,54.2
1975,7,18,7,,1,,,,,,,9.7,12.3,12.3,13.6,15.6,15.6,,,
1974,6,29,7,1,,,,,,,,20.7,27.5,29.8,18.5,20.3,20.4,20.6,29.8,33.2
1973,7,14,0,,1,,,,,,,29.9,31.1,31.1,40,41.5,41.5,27.8,27.8,27.8
1972,8,14,0,,,,,1,1,,,12.4,13.2,15.2,21.8,21.9,24.9,11.1,11.1,13.4
1971,8,20,0,,,,,1,1,,1,20.1,21.8,30.5,24.8,28.4,29.9,16,16.5,17.1
1970,8,21,7,1,1,,1,1,1,1,,13.1,28,28.1,18.8,30.9,30.9,7.8,19.7,21.4
1969,8,14,7,,,1,,,1,,,25,29.1,32.6,27.5,34.4,35.2,15.4,17.5,18.3
1968,8,14,7,,,,,1,1,,,18.8,27.8,27.8,23.2,27.4,28.6,16.4,22.2,22.2
1967,9,4,7,,,,,,,1,,21.4,24.5,24.5,30.2,42.5,42.5,13.9,16.1,16.1
1966,7,18,0,1,,,,,1,,,26.84,33,33,31.1,41.3,41.3,24.8,31.7,31.7
1965,8,22,0,,,,,,,,,34.76,44.88,44.88,30.3,41.9,42.6,31.1,41.5,41.5
1964,6,14,0,,,,,,,,1,35.86,35.86,35.86,32.4,32.4,32.4,28.2,28.2,28.2
1963,8,12,0,1,,,,1,,1,,48.07,51.59,51.59,34.2,37.6,37.6,24.1,29.3,29.3
1962,6,2,0,1,,,,,,1,1,40.7,45.9,45.9,0,32,37,0,35.3,35.3
1961,8,11,7,,1,,,,1,,,5.17,15.29,19.47,19.5,35,50.6,4,11.6,33.4
1960,5,18,0,,1,1,1,1,,,,28.3,28.3,33.7,30.4,31.3,35.3,,,
1959,7,14,7,1,,,,1,1,,,19.25,19.25,22.88,18.2,18.2,22.4,,,
1957,8,13,7,1,,,,1,1,,,18.7,25.52,37.29,23,29.2,50.4,,,
1956,9,2,7,,1,,,,,1,,10.82,14.18,14.18,23.5,27.4,27.4,,,
1955,6,7,7,,,,,1,,,,24.97,24.97,25.74,28.5,28.5,28.7,,,
1953,10,19,7,1,,,,,,,,22.37,60.59,66.89,21.6,57.2,64.5,,,
1952,8,30,0,1,1,1,,,1,,1,22.99,22.99,22.99,29.1,29.1,29.1,,,
1951,8,21,0,1,,,,,,,,57.42,57.42,57.42,40.7,57.9,57.9,,,
1950,9,1,0,,,,,,1,,,41.58,41.58,41.58,33.4,41.9,41.9,,,
1949,8,29,7,,,,1,1,,,,,,,,,,18.6,25.8,27.7
1948,9,4,0,1,,1,,,,,,94.71,105.32,,105.32,,,69.8,102.2,102.2
1947,9,26,0,1,,,,,1,,1,58.49,159.71,,173.57,,,34.4,115.8,133.3
1945,8,8,7,1,1,,1,,1,,1,20.02,34.43,41.36,23.7,37.8,41.1,,,
1945,8,30,7,1,1,,1,,1,,1,21.23,21.34,21.34,15.7,19.8,19.8,,,
1944,7,4,0,,,,1,,,,,37.84,56.87,56.87,27.6,45.2,45.2,,,
1943,8,22,7,,1,,,,,,,23.32,23.32,23.32,20,27.4,27.4,,,
1942,8,23,7,,,,,,,,1,32.56,32.56,32.56,25,25,27.3,,,
1941,7,15,14,1,1,1,,,,,,16.06,16.06,17.6,,,,,,
1939,8,5,0,,1,,,,1,,,44.66,44.66,49.5,36.3,39,44.2,,,
1937,6,7,14,,,,,,1,,,24.53,24.53,24.53,20.7,20.7,20.7,,,
1936,9,16,0,,,,,,,1,,55.65,62.16,68.87,44,56.4,60.9,,,
1935,8,25,7,1,,1,,1,,1,1,33.22,33.22,36.74,13.2,16.9,16.9,,,
1934,7,22,0,1,1,,,,,,,18.26,38.61,38.61,,,,,,
1933,8,14,7,,,,,,,,1,,,,,,,16.7,16.7,16.7
1932,6,21,7,,,,,,,,1,24.42,35.31,41.36,24.9,35.7,38.7,,,
1928,8,15,7,1,1,,1,,,,1,22,22,22,14,14.5,14.7,,,
1927,6,11,14,1,,,,,,,,20.9,25.85,25.85,,,,,,
1926,7,7,0,,,,,1,1,,,62.92,73.92,73.92,40,43.2,43.2,,,
1925,7,9,7,1,1,,,,,,,24.09,24.09,24.09,22,23.7,23.7,,,
1925,8,11,7,,,,,,,,1,,,,34.4,36.4,36.4,,,
1924,8,13,14,1,,1,,,,,,25.74,28.38,28.38,33.3,38.9,38.9,,,
1923,5,29,0,,1,,,,1,,,32.4,32.4,32.4,36.6,37.7,39.9,,,
1922,7,15,14,1,,1,,,,,,17.27,19.47,19.47,50,54,54,,,
1922,8,30,0,1,,1,,,,,,42.35,48.29,53.79,40,50.2,56.2,,,
1921,8,12,0,1,1,,,1,,,1,9.02,9.79,12.54,26,38.2,38.2,,,
1920,9,24,0,1,1,,1,1,1,,1,47.04,96.81,122.01,40,86,113,,,
1919,10,2,7,1,,1,,1,,,,13.44,30.66,41.27,8,14.5,23.1,,,
1918,6,17,7,,1,,,1,,,,22.11,33.66,39.38,30,43,53,,,
1917,7,31,7,,1,,,1,1,,,32.01,98.01,102.41,30,80.7,88.2,,,
1916,9,28,0,1,,,,,1,,1,32.55,34.44,34.44,35.4,44.4,44.4,,,
1914,8,27,0,1,,,,1,,,,66,71.94,79.64,64,77,78.4,,,
1913,10,29,7,,,,,,,,1,23.31,42.21,42.21,20,35,35,,,
1911,10,6,7,,,,,,1,,1,,,,30,34.5,38.1,,,
1910,8,3,7,,1,,,,,,,23.65,28.16,28.16,30,30,33.5,,,
1908,7,13,7,,,1,,,,,,19.25,25.3,26.4,18.5,31.5,31.5,,,
1907,7,8,14,,,1,,,,,,26.4,28.71,32.56,30,30,30,,,
1906,7,12,14,,,,,,,,1,,,,13.7,19.4,21.8,,,
1904,8,30,7,,,1,,,,,1,27.5,27.5,27.5,20.4,20.4,20.4,,,
1903,6,3,7,,1,,,,,,,,,,22.4,22.4,23.1,,,
1902,9,5,7,1,,,,,,,,22.05,22.05,22.05,20,20,20,,,
1901,9,25,14,,,,,,,,1,19.95,33.6,33.6,19.7,47.7,47.7,,,
1900,8,24,14,1,,,1,,,,,11,18.7,18.7,,,,,,
1898,7,27,7,,,,,,,1,,31.46,31.46,31.46,,,,,,
1897,9,15,0,1,1,,,1,,,,44.63,57.65,57.65,,,,,,
1896,7,29,7,1,,,,,,,,20.35,36.3,36.74,,,,,,
1895,6,6,14,,,,,1,,,,24.97,29.92,31.57,,,,,,
1894,8,3,14,1,1,,,,,,,14.52,16.5,16.5,,,,,,
1893,7,27,0,1,,,,,,,,20.57,33.77,33.77,,,,,,
1892,8,25,7,1,1,,,1,,,1,33.44,35.97,35.97,,,,,,
1885,6,28,7,1,,,,,,,,21.45,21.45,21.45,,,,,,
1883,7,25,7,1,,,,,,,,13.75,13.75,13.75,,,,,,
1880,7,22,7,1,,,,1,1,,1,24.2,31.13,31.13,,,,,,
1878,8,3,7,1,,,,,,,1,29.15,29.15,29.15,,,,,,
1876,6,11,0,,,,,1,,,,48.73,48.73,48.73,,,,,,
1874,7,30,0,1,1,,,,,,,42.68,42.68,42.68,,,,,,
1873,7,13,7,1,,,,,,,1,17.93,23.65,23.65,,,,,,
1872,7,13,14,1,,,,,1,,,27.5,33.22,33.22,,,,,,
1870,8,4,0,1,,,,,,,,45.32,45.32,45.32,,,,,,
1869,8,19,7,,1,,,,,,,23.32,32.12,32.12,,,,,,
1868,7,14,7,1,,,,1,,,1,35.09,35.09,35.09,,,,,,
1865,8,26,0,1,1,,,1,,,,36.85,36.85,36.85,,,,,,
1864,7,18,7,,,,,,1,,,7.15,18.15,18.15,,,,,,
